{
    "Contact Us": "Liên hệ",
    "Feel free to ask us": "Đặt câu hỏi cho chúng tôi",
    "Fill up The Form" : "Điền vào biểu mẫu",
    "Please input your name": "Làm ơn điền tên của bạn",
    "Please let us contact you by your email": "Vui lòng cho phép chúng tôi liên hệ với bạn qua email của bạn",
    "Please input your message": "Vui lòng nhập tin nhắn của bạn",
    "Phone number": "Số điện thoại",
    "Your name" : "Tên",
    "Email" : "Email",
    "Your demand of contact has been successfully sent" : "Yêu cầu liên hệ của bạn đã được gửi thành công",
    "Subject" : "Nội dung",
    "Submit Request" : "Gửi Yêu Cầu"
}
